%YAML 1.1
%TAG !u! tag:unity3d.com,2011:
--- !u!1 &4231248748619596275
GameObject:
  m_ObjectHideFlags: 0
  m_CorrespondingSourceObject: {fileID: 0}
  m_PrefabInstance: {fileID: 0}
  m_PrefabAsset: {fileID: 0}
  serializedVersion: 6
  m_Component:
  - component: {fileID: 1422115338108152373}
  - component: {fileID: 6231454100812935855}
  - component: {fileID: 7664964036923639077}
  - component: {fileID: 7235736440468853355}
  m_Layer: 0
  m_Name: RailwayLine2
  m_TagString: Untagged
  m_Icon: {fileID: 0}
  m_NavMeshLayer: 0
  m_StaticEditorFlags: 0
  m_IsActive: 1
--- !u!4 &1422115338108152373
Transform:
  m_ObjectHideFlags: 0
  m_CorrespondingSourceObject: {fileID: 0}
  m_PrefabInstance: {fileID: 0}
  m_PrefabAsset: {fileID: 0}
  m_GameObject: {fileID: 4231248748619596275}
  m_LocalRotation: {x: 0, y: 0, z: 0, w: 1}
  m_LocalPosition: {x: 90, y: 0, z: 0}
  m_LocalScale: {x: 1, y: 1, z: 30}
  m_ConstrainProportionsScale: 0
  m_Children:
  - {fileID: 3996663305189315478}
  - {fileID: 9079214068015377895}
  m_Father: {fileID: 0}
  m_RootOrder: 0
  m_LocalEulerAnglesHint: {x: 0, y: 0, z: 0}
--- !u!33 &6231454100812935855
MeshFilter:
  m_ObjectHideFlags: 0
  m_CorrespondingSourceObject: {fileID: 0}
  m_PrefabInstance: {fileID: 0}
  m_PrefabAsset: {fileID: 0}
  m_GameObject: {fileID: 4231248748619596275}
  m_Mesh: {fileID: 10202, guid: 0000000000000000e000000000000000, type: 0}
--- !u!23 &7664964036923639077
MeshRenderer:
  m_ObjectHideFlags: 0
  m_CorrespondingSourceObject: {fileID: 0}
  m_PrefabInstance: {fileID: 0}
  m_PrefabAsset: {fileID: 0}
  m_GameObject: {fileID: 4231248748619596275}
  m_Enabled: 1
  m_CastShadows: 1
  m_ReceiveShadows: 1
  m_DynamicOccludee: 1
  m_StaticShadowCaster: 0
  m_MotionVectors: 1
  m_LightProbeUsage: 1
  m_ReflectionProbeUsage: 1
  m_RayTracingMode: 2
  m_RayTraceProcedural: 0
  m_RenderingLayerMask: 1
  m_RendererPriority: 0
  m_Materials:
  - {fileID: 10303, guid: 0000000000000000f000000000000000, type: 0}
  m_StaticBatchInfo:
    firstSubMesh: 0
    subMeshCount: 0
  m_StaticBatchRoot: {fileID: 0}
  m_ProbeAnchor: {fileID: 0}
  m_LightProbeVolumeOverride: {fileID: 0}
  m_ScaleInLightmap: 1
  m_ReceiveGI: 1
  m_PreserveUVs: 0
  m_IgnoreNormalsForChartDetection: 0
  m_ImportantGI: 0
  m_StitchLightmapSeams: 1
  m_SelectedEditorRenderState: 3
  m_MinimumChartSize: 4
  m_AutoUVMaxDistance: 0.5
  m_AutoUVMaxAngle: 89
  m_LightmapParameters: {fileID: 0}
  m_SortingLayerID: 0
  m_SortingLayer: 0
  m_SortingOrder: 0
  m_AdditionalVertexStreams: {fileID: 0}
--- !u!65 &7235736440468853355
BoxCollider:
  m_ObjectHideFlags: 0
  m_CorrespondingSourceObject: {fileID: 0}
  m_PrefabInstance: {fileID: 0}
  m_PrefabAsset: {fileID: 0}
  m_GameObject: {fileID: 4231248748619596275}
  m_Material: {fileID: 0}
  m_IsTrigger: 0
  m_Enabled: 1
  serializedVersion: 2
  m_Size: {x: 1, y: 1, z: 1}
  m_Center: {x: 0, y: 0, z: 0}
--- !u!1001 &954222190629392369
PrefabInstance:
  m_ObjectHideFlags: 0
  serializedVersion: 2
  m_Modification:
    m_TransformParent: {fileID: 1422115338108152373}
    m_Modifications:
    - target: {fileID: 3015291833875601078, guid: 8bd8219136eb5414a8d9bccc8e14e62f, type: 3}
      propertyPath: m_Name
      value: TrafficLight
      objectReference: {fileID: 0}
    - target: {fileID: 8125000677908521494, guid: 8bd8219136eb5414a8d9bccc8e14e62f, type: 3}
      propertyPath: m_RootOrder
      value: 1
      objectReference: {fileID: 0}
    - target: {fileID: 8125000677908521494, guid: 8bd8219136eb5414a8d9bccc8e14e62f, type: 3}
      propertyPath: m_LocalScale.z
      value: 0.033333335
      objectReference: {fileID: 0}
    - target: {fileID: 8125000677908521494, guid: 8bd8219136eb5414a8d9bccc8e14e62f, type: 3}
      propertyPath: m_LocalPosition.x
      value: 1
      objectReference: {fileID: 0}
    - target: {fileID: 8125000677908521494, guid: 8bd8219136eb5414a8d9bccc8e14e62f, type: 3}
      propertyPath: m_LocalPosition.y
      value: 2
      objectReference: {fileID: 0}
    - target: {fileID: 8125000677908521494, guid: 8bd8219136eb5414a8d9bccc8e14e62f, type: 3}
      propertyPath: m_LocalPosition.z
      value: -0.16666667
      objectReference: {fileID: 0}
    - target: {fileID: 8125000677908521494, guid: 8bd8219136eb5414a8d9bccc8e14e62f, type: 3}
      propertyPath: m_LocalRotation.w
      value: 1
      objectReference: {fileID: 0}
    - target: {fileID: 8125000677908521494, guid: 8bd8219136eb5414a8d9bccc8e14e62f, type: 3}
      propertyPath: m_LocalRotation.x
      value: -0
      objectReference: {fileID: 0}
    - target: {fileID: 8125000677908521494, guid: 8bd8219136eb5414a8d9bccc8e14e62f, type: 3}
      propertyPath: m_LocalRotation.y
      value: -0
      objectReference: {fileID: 0}
    - target: {fileID: 8125000677908521494, guid: 8bd8219136eb5414a8d9bccc8e14e62f, type: 3}
      propertyPath: m_LocalRotation.z
      value: -0
      objectReference: {fileID: 0}
    - target: {fileID: 8125000677908521494, guid: 8bd8219136eb5414a8d9bccc8e14e62f, type: 3}
      propertyPath: m_LocalEulerAnglesHint.x
      value: 0
      objectReference: {fileID: 0}
    - target: {fileID: 8125000677908521494, guid: 8bd8219136eb5414a8d9bccc8e14e62f, type: 3}
      propertyPath: m_LocalEulerAnglesHint.y
      value: 0
      objectReference: {fileID: 0}
    - target: {fileID: 8125000677908521494, guid: 8bd8219136eb5414a8d9bccc8e14e62f, type: 3}
      propertyPath: m_LocalEulerAnglesHint.z
      value: 0
      objectReference: {fileID: 0}
    m_RemovedComponents: []
  m_SourcePrefab: {fileID: 100100000, guid: 8bd8219136eb5414a8d9bccc8e14e62f, type: 3}
--- !u!4 &9079214068015377895 stripped
Transform:
  m_CorrespondingSourceObject: {fileID: 8125000677908521494, guid: 8bd8219136eb5414a8d9bccc8e14e62f, type: 3}
  m_PrefabInstance: {fileID: 954222190629392369}
  m_PrefabAsset: {fileID: 0}
--- !u!1001 &5271511425076728227
PrefabInstance:
  m_ObjectHideFlags: 0
  serializedVersion: 2
  m_Modification:
    m_TransformParent: {fileID: 1422115338108152373}
    m_Modifications:
    - target: {fileID: 8576613631631115024, guid: ce36c5f002e69d345a998bd620c72f28, type: 3}
      propertyPath: m_Name
      value: Rails
      objectReference: {fileID: 0}
    - target: {fileID: 9106045006241153589, guid: ce36c5f002e69d345a998bd620c72f28, type: 3}
      propertyPath: m_RootOrder
      value: 0
      objectReference: {fileID: 0}
    - target: {fileID: 9106045006241153589, guid: ce36c5f002e69d345a998bd620c72f28, type: 3}
      propertyPath: m_LocalScale.z
      value: 1
      objectReference: {fileID: 0}
    - target: {fileID: 9106045006241153589, guid: ce36c5f002e69d345a998bd620c72f28, type: 3}
      propertyPath: m_LocalPosition.x
      value: 0
      objectReference: {fileID: 0}
    - target: {fileID: 9106045006241153589, guid: ce36c5f002e69d345a998bd620c72f28, type: 3}
      propertyPath: m_LocalPosition.y
      value: 0.625
      objectReference: {fileID: 0}
    - target: {fileID: 9106045006241153589, guid: ce36c5f002e69d345a998bd620c72f28, type: 3}
      propertyPath: m_LocalPosition.z
      value: 0
      objectReference: {fileID: 0}
    - target: {fileID: 9106045006241153589, guid: ce36c5f002e69d345a998bd620c72f28, type: 3}
      propertyPath: m_LocalRotation.w
      value: 1
      objectReference: {fileID: 0}
    - target: {fileID: 9106045006241153589, guid: ce36c5f002e69d345a998bd620c72f28, type: 3}
      propertyPath: m_LocalRotation.x
      value: -0
      objectReference: {fileID: 0}
    - target: {fileID: 9106045006241153589, guid: ce36c5f002e69d345a998bd620c72f28, type: 3}
      propertyPath: m_LocalRotation.y
      value: -0
      objectReference: {fileID: 0}
    - target: {fileID: 9106045006241153589, guid: ce36c5f002e69d345a998bd620c72f28, type: 3}
      propertyPath: m_LocalRotation.z
      value: -0
      objectReference: {fileID: 0}
    - target: {fileID: 9106045006241153589, guid: ce36c5f002e69d345a998bd620c72f28, type: 3}
      propertyPath: m_LocalEulerAnglesHint.x
      value: 0
      objectReference: {fileID: 0}
    - target: {fileID: 9106045006241153589, guid: ce36c5f002e69d345a998bd620c72f28, type: 3}
      propertyPath: m_LocalEulerAnglesHint.y
      value: 0
      objectReference: {fileID: 0}
    - target: {fileID: 9106045006241153589, guid: ce36c5f002e69d345a998bd620c72f28, type: 3}
      propertyPath: m_LocalEulerAnglesHint.z
      value: 0
      objectReference: {fileID: 0}
    m_RemovedComponents: []
  m_SourcePrefab: {fileID: 100100000, guid: ce36c5f002e69d345a998bd620c72f28, type: 3}
--- !u!4 &3996663305189315478 stripped
Transform:
  m_CorrespondingSourceObject: {fileID: 9106045006241153589, guid: ce36c5f002e69d345a998bd620c72f28, type: 3}
  m_PrefabInstance: {fileID: 5271511425076728227}
  m_PrefabAsset: {fileID: 0}
